…
    ## ── Conflicts ───────────────────────────────────────────────────────────────────────── tidyverse_conflicts() ──
    ## ✖ dplyr::filter() masks stats::filter()
    ## ✖ dplyr::lag()    masks stats::lag()

``` r
set.seed(10)

iris_with_missing = iris %>% 
  map_df(~replace(.x, sample(1:150, 20), NA)) %>%
  mutate(Species = as.character(Species))
iris_with_missing
```

    ## # A tibble: 150 x 5
    ##    Sepal.Length Sepal.Width Petal.Length Petal.Width Species
    ##           <dbl>       <dbl>        <dbl>       <dbl> <chr>  
    ##  1          5.1         3.5          1.4         0.2 setosa 
    ##  2          4.9         3            1.4         0.2 setosa 
    ##  3          4.7         3.2          1.3         0.2 setosa 
    ##  4          4.6         3.1          1.5        NA   setosa 
    ##  5          5           3.6          1.4         0.2 setosa 
    ##  6          5.4         3.9          1.7         0.4 setosa 
    ##  7         NA           3.4          1.4         0.3 setosa 
    ##  8          5           3.4          1.5         0.2 setosa 
    ##  9          4.4         2.9          1.4         0.2 setosa 
    ## 10          4.9         3.1         NA           0.1 setosa 
    ## # … with 140 more rows
## Function to Replace Missing Values

``` r
replace_missing = function(x) {
  if (is.numeric(x)) {
    ifelse(is.na(x), mean(x, na.rm = TRUE), x)
  } else if (is.character(x)) {
    ifelse(is.na(x), "virginica", x)
  }
}
iris_complete = map_df(iris_with_missing, replace_missing)
iris_complete
```

    ## # A tibble: 150 x 5
    ##    Sepal.Length Sepal.Width Petal.Length Petal.Width Species
    ##           <dbl>       <dbl>        <dbl>       <dbl> <chr>  
    ##  1         5.1          3.5         1.4         0.2  setosa 
    ##  2         4.9          3           1.4         0.2  setosa 
    ##  3         4.7          3.2         1.3         0.2  setosa 
    ##  4         4.6          3.1         1.5         1.19 setosa 
    ##  5         5            3.6         1.4         0.2  setosa 
    ##  6         5.4          3.9         1.7         0.4  setosa 
    ##  7         5.82         3.4         1.4         0.3  setosa 
    ##  8         5            3.4         1.5         0.2  setosa 
    ##  9         4.4          2.9         1.4         0.2  setosa 
    ## 10         4.9          3.1         3.77        0.1  setosa 
    ## # … with 140 more rows
…
    ## Warning: `cols` is now required.
    ## Please use `cols = c(weekly_data)`

``` r
study_df
```

    ## # A tibble: 160 x 5
    ##    participant files             study_arm week   observation
    ##    <chr>       <chr>             <chr>     <chr>        <dbl>
    ##  1 con_01      ./data/con_01.csv control   week_1        0.2 
    ##  2 con_01      ./data/con_01.csv control   week_2       -1.31
    ##  3 con_01      ./data/con_01.csv control   week_3        0.66
    ##  4 con_01      ./data/con_01.csv control   week_4        1.96
    ##  5 con_01      ./data/con_01.csv control   week_5        0.23
    ##  6 con_01      ./data/con_01.csv control   week_6        1.09
    ##  7 con_01      ./data/con_01.csv control   week_7        0.05
    ##  8 con_01      ./data/con_01.csv control   week_8        1.94
    ##  9 con_02      ./data/con_02.csv control   week_1        1.13
    ## 10 con_02      ./data/con_02.csv control   week_2       -0.88
    ## # … with 150 more rows
…
